[
  {
    "id": "251",
    "name": "Academics",
    "selected": "0"
  }, {
    "id": "250",
    "name": "Admission",
    "selected": "0"
  }, {
    "id": "252",
    "name": "Alumni",
    "selected": "0"
  }, {
    "id": "109",
    "name": "Art and Performance",
    "selected": "0"
  }, {
    "id": "280",
    "name": "Fine Arts Auditions",
    "selected": "0"
  }, {
    "id": "110",
    "name": "Fitness and Wellness",
    "selected": "0"
  }, {
    "id": "275",
    "name": "Freshman Visit Program",
    "selected": "0"
  }, {
    "id": "278",
    "name": "Individual Weekday Visit",
    "selected": "0"
  }, {
    "id": "253",
    "name": "Naperville Community",
    "selected": "0"
  }, {
    "id": "111",
    "name": "Research",
    "selected": "0"
  }
]