<?xml version="1.0" encoding="utf-8"?>
<!-- Generator: Adobe Illustrator 17.1.0, SVG Export Plug-In . SVG Version: 6.00 Build 0)  -->
<!DOCTYPE svg PUBLIC "-//W3C//DTD SVG 1.1//EN" "http://www.w3.org/Graphics/SVG/1.1/DTD/svg11.dtd">
<svg version="1.1" id="Filled_Icons" xmlns="http://www.w3.org/2000/svg" xmlns:xlink="http://www.w3.org/1999/xlink" x="0px"
	 y="0px" width="24px" height="24px" viewBox="0 0 24 24" enable-background="new 0 0 24 24" xml:space="preserve">
<g>
	<path d="M18.158,15.026L14,13.639V8c0-1.103-0.898-2-2-2c-1.104,0-2,0.897-2,2v9.399C8.525,15.428,7.561,15,6.5,15
		c-0.501,0-0.9,0.227-1.123,0.642c-0.351,0.646-0.156,1.582,0.207,2.136l4,6C9.676,23.916,9.832,24,10,24h8
		c0.241,0,0.448-0.173,0.492-0.41l0.994-5.477C19.762,16.92,19.461,15.444,18.158,15.026z"/>
	<path d="M18,0H6C3.794,0,2,1.794,2,4v5.5c0,2.206,1.794,4,4,4h0.5c0.552,0,1-0.448,1-1c0-0.552-0.448-1-1-1H6c-1.103,0-2-0.898-2-2
		V4c0-1.103,0.897-2,2-2h12c1.103,0,2,0.897,2,2v5.5c0,1.102-0.897,2-2,2h-0.5c-0.553,0-1,0.448-1,1c0,0.552,0.447,1,1,1H18
		c2.205,0,4-1.794,4-4V4C22,1.794,20.205,0,18,0z"/>
</g>
</svg>
